-------------------------2017-02-06 05:00:52 pm
-------------------------2017-02-06 05:10:52 pm
-------------------------2017-02-06 05:20:52 pm
-------------------------2017-02-06 05:30:52 pm
-------------------------2017-02-06 05:40:52 pm
-------------------------2017-02-06 05:53:23 pm
-------------------------2017-02-06 06:03:23 pm
-------------------------2017-02-06 06:13:23 pm
-------------------------2017-02-06 06:23:23 pm
-------------------------2017-02-06 06:33:57 pm
-------------------------2017-02-06 06:37:54 pm
-------------------------2017-02-06 06:43:57 pm
-------------------------2017-02-06 06:47:54 pm
-------------------------2017-02-06 06:53:57 pm
-------------------------2017-02-06 06:57:54 pm
-------------------------2017-02-06 07:03:57 pm
-------------------------2017-02-06 07:07:54 pm
-------------------------2017-02-06 07:13:57 pm
-------------------------2017-02-06 07:17:54 pm
-------------------------2017-02-06 07:23:57 pm
-------------------------2017-02-06 07:33:57 pm
-------------------------2017-02-06 09:25:17 pm
-------------------------2017-02-06 09:35:17 pm
-------------------------2017-02-06 09:45:17 pm
-------------------------2017-02-06 09:55:17 pm
-------------------------2017-02-07 07:17:56 pm
-------------------------2017-02-08 03:48:20 pm
-------------------------2017-02-08 03:49:18 pm
-------------------------2017-02-08 03:51:53 pm
-------------------------2017-02-08 03:51:55 pm
-------------------------2017-02-08 03:51:55 pm
-------------------------2017-02-08 03:51:56 pm
-------------------------2017-02-08 03:51:57 pm
-------------------------2017-02-08 03:51:58 pm
-------------------------2017-02-08 03:51:59 pm
-------------------------2017-02-08 03:52:00 pm
-------------------------2017-02-08 03:52:01 pm
-------------------------2017-02-08 03:52:03 pm
-------------------------2017-02-08 03:52:03 pm
-------------------------2017-02-08 03:52:04 pm
-------------------------2017-02-08 03:52:05 pm
-------------------------2017-02-08 03:52:06 pm
-------------------------2017-02-08 03:52:07 pm
-------------------------2017-02-08 03:52:08 pm
-------------------------2017-02-08 03:52:09 pm
-------------------------2017-02-08 03:52:10 pm
-------------------------2017-02-08 03:52:11 pm
-------------------------2017-02-08 03:52:12 pm
-------------------------2017-02-08 03:52:13 pm
-------------------------2017-02-08 03:52:14 pm
-------------------------2017-02-08 03:52:15 pm
-------------------------2017-02-08 03:52:16 pm
-------------------------2017-02-08 03:52:17 pm
-------------------------2017-02-08 03:52:18 pm
-------------------------2017-02-08 03:52:19 pm
-------------------------2017-02-08 03:52:20 pm
-------------------------2017-02-08 03:52:21 pm
-------------------------2017-02-08 03:52:22 pm
-------------------------2017-02-08 03:52:30 pm
-------------------------2017-02-08 03:52:35 pm
-------------------------2017-02-08 03:52:40 pm
-------------------------2017-02-08 03:52:45 pm
-------------------------2017-02-08 03:52:50 pm
-------------------------2017-02-08 03:52:55 pm
-------------------------2017-02-08 03:53:00 pm
-------------------------2017-02-08 03:53:05 pm
-------------------------2017-02-08 03:53:10 pm
-------------------------2017-02-08 03:53:15 pm
-------------------------2017-02-08 03:53:20 pm
-------------------------2017-02-08 03:53:25 pm
-------------------------2017-02-08 03:53:30 pm
-------------------------2017-02-08 03:53:35 pm
-------------------------2017-02-08 03:53:40 pm
-------------------------2017-02-08 03:53:45 pm
-------------------------2017-02-08 03:53:50 pm
-------------------------2017-02-08 03:53:55 pm
-------------------------2017-02-08 03:54:00 pm
-------------------------2017-02-08 03:54:05 pm
-------------------------2017-02-08 03:54:10 pm
-------------------------2017-02-08 03:54:15 pm
-------------------------2017-02-08 03:54:20 pm
-------------------------2017-02-08 03:54:25 pm
-------------------------2017-02-08 03:54:30 pm
-------------------------2017-02-08 03:54:35 pm
-------------------------2017-02-08 03:54:40 pm
-------------------------2017-02-08 03:54:45 pm
-------------------------2017-02-08 03:54:50 pm
-------------------------2017-02-08 03:54:55 pm
-------------------------2017-02-08 03:55:00 pm
-------------------------2017-02-08 03:55:05 pm
-------------------------2017-02-08 03:55:10 pm
-------------------------2017-02-08 03:55:15 pm
-------------------------2017-02-08 03:55:20 pm
-------------------------2017-02-08 03:55:25 pm
-------------------------2017-02-08 03:55:30 pm
-------------------------2017-02-08 03:55:35 pm
-------------------------2017-02-08 03:55:40 pm
-------------------------2017-02-08 03:55:45 pm
-------------------------2017-02-08 03:55:50 pm
-------------------------2017-02-08 03:55:55 pm
-------------------------2017-02-08 03:56:00 pm
-------------------------2017-02-08 03:56:05 pm
-------------------------2017-02-08 03:56:10 pm
-------------------------2017-02-08 03:56:15 pm
-------------------------2017-02-08 03:56:20 pm
-------------------------2017-02-08 03:56:25 pm
-------------------------2017-02-08 03:56:30 pm
-------------------------2017-02-08 03:56:35 pm
-------------------------2017-02-08 03:56:40 pm
-------------------------2017-02-08 03:56:45 pm
-------------------------2017-02-08 03:56:50 pm
-------------------------2017-02-08 03:56:55 pm
-------------------------2017-02-08 03:57:00 pm
-------------------------2017-02-08 03:57:05 pm
-------------------------2017-02-08 03:57:10 pm
-------------------------2017-02-08 03:57:15 pm
-------------------------2017-02-08 03:57:20 pm
-------------------------2017-02-08 03:57:25 pm
-------------------------2017-02-08 03:57:30 pm
-------------------------2017-02-08 03:57:35 pm
-------------------------2017-02-08 03:57:40 pm
-------------------------2017-02-08 03:57:45 pm
-------------------------2017-02-08 03:57:50 pm
-------------------------2017-02-08 03:57:55 pm
-------------------------2017-02-08 03:58:00 pm
-------------------------2017-02-08 03:58:05 pm
-------------------------2017-02-08 03:58:10 pm
-------------------------2017-02-08 03:58:15 pm
-------------------------2017-02-08 03:58:20 pm
-------------------------2017-02-08 03:58:25 pm
-------------------------2017-02-08 03:58:30 pm
-------------------------2017-02-08 03:58:35 pm
-------------------------2017-02-08 03:58:40 pm
-------------------------2017-02-08 03:58:45 pm
-------------------------2017-02-08 03:58:50 pm
-------------------------2017-02-08 03:58:55 pm
-------------------------2017-02-08 03:59:00 pm
-------------------------2017-02-08 03:59:05 pm
-------------------------2017-02-08 03:59:10 pm
-------------------------2017-02-08 03:59:15 pm
-------------------------2017-02-08 03:59:20 pm
-------------------------2017-02-08 03:59:25 pm
-------------------------2017-02-08 03:59:30 pm
-------------------------2017-02-08 03:59:35 pm
-------------------------2017-02-08 03:59:40 pm
-------------------------2017-02-08 03:59:45 pm
-------------------------2017-02-08 03:59:50 pm
-------------------------2017-02-08 03:59:55 pm
-------------------------2017-02-08 04:00:00 pm
-------------------------2017-02-08 04:00:05 pm
-------------------------2017-02-08 04:00:10 pm
-------------------------2017-02-08 04:00:15 pm
-------------------------2017-02-08 04:00:20 pm
-------------------------2017-02-08 04:00:25 pm
-------------------------2017-02-08 04:00:30 pm
-------------------------2017-02-08 04:00:35 pm
-------------------------2017-02-08 04:00:40 pm
-------------------------2017-02-08 04:00:45 pm
-------------------------2017-02-08 04:00:50 pm
-------------------------2017-02-08 04:00:55 pm
-------------------------2017-02-08 04:01:00 pm
-------------------------2017-02-08 04:01:05 pm
-------------------------2017-02-08 04:01:10 pm
-------------------------2017-02-08 04:01:15 pm
-------------------------2017-02-08 04:01:20 pm
-------------------------2017-02-08 04:01:25 pm
-------------------------2017-02-08 04:01:30 pm
-------------------------2017-02-08 04:01:35 pm
-------------------------2017-02-08 04:01:40 pm
-------------------------2017-02-08 04:01:45 pm
-------------------------2017-02-08 04:01:50 pm
-------------------------2017-02-08 04:01:55 pm
-------------------------2017-02-08 04:02:00 pm
-------------------------2017-02-08 04:02:05 pm
-------------------------2017-02-08 04:02:10 pm
-------------------------2017-02-08 04:02:15 pm
-------------------------2017-02-08 04:02:20 pm
-------------------------2017-02-08 04:02:25 pm
-------------------------2017-02-08 04:02:30 pm
-------------------------2017-02-08 04:02:35 pm
-------------------------2017-02-08 04:02:40 pm
-------------------------2017-02-08 04:02:45 pm
-------------------------2017-02-08 04:02:50 pm
-------------------------2017-02-08 04:02:55 pm
-------------------------2017-02-08 04:03:00 pm
-------------------------2017-02-08 04:03:05 pm
-------------------------2017-02-08 04:03:10 pm
-------------------------2017-02-08 04:03:15 pm
-------------------------2017-02-08 04:03:20 pm
-------------------------2017-02-08 04:03:25 pm
-------------------------2017-02-08 04:03:30 pm
-------------------------2017-02-08 04:03:35 pm
-------------------------2017-02-08 04:03:40 pm
-------------------------2017-02-08 04:03:45 pm
-------------------------2017-02-08 04:03:50 pm
-------------------------2017-02-08 04:03:55 pm
-------------------------2017-02-08 04:04:00 pm
-------------------------2017-02-08 04:04:05 pm
-------------------------2017-02-08 04:04:10 pm
-------------------------2017-02-08 04:04:15 pm
-------------------------2017-02-08 04:04:20 pm
-------------------------2017-02-08 04:04:25 pm
-------------------------2017-02-08 04:04:30 pm
-------------------------2017-02-08 04:04:35 pm
-------------------------2017-02-08 04:04:40 pm
-------------------------2017-02-08 04:04:45 pm
-------------------------2017-02-08 04:04:50 pm
-------------------------2017-02-08 04:04:55 pm
-------------------------2017-02-08 04:05:00 pm
-------------------------2017-02-08 04:05:05 pm
-------------------------2017-02-08 04:05:10 pm
-------------------------2017-02-08 04:05:15 pm
-------------------------2017-02-08 04:05:20 pm
-------------------------2017-02-08 04:05:25 pm
-------------------------2017-02-08 04:05:30 pm
-------------------------2017-02-08 04:05:35 pm
-------------------------2017-02-08 04:05:40 pm
-------------------------2017-02-08 04:05:45 pm
-------------------------2017-02-08 04:05:50 pm
-------------------------2017-02-08 04:05:55 pm
-------------------------2017-02-08 04:06:00 pm
-------------------------2017-02-08 04:06:05 pm
-------------------------2017-02-08 04:06:10 pm
-------------------------2017-02-08 04:06:15 pm
-------------------------2017-02-08 04:06:20 pm
-------------------------2017-02-08 04:06:25 pm
-------------------------2017-02-08 04:06:30 pm
-------------------------2017-02-08 04:06:35 pm
-------------------------2017-02-08 04:06:40 pm
-------------------------2017-02-08 04:06:45 pm
-------------------------2017-02-08 04:06:50 pm
-------------------------2017-02-08 04:06:55 pm
-------------------------2017-02-08 04:07:00 pm
-------------------------2017-02-08 04:07:05 pm
-------------------------2017-02-08 04:07:10 pm
-------------------------2017-02-08 04:07:15 pm
-------------------------2017-02-08 04:07:20 pm
-------------------------2017-02-08 04:07:25 pm
-------------------------2017-02-08 04:07:30 pm
-------------------------2017-02-08 04:07:35 pm
-------------------------2017-02-08 04:07:40 pm
-------------------------2017-02-08 04:07:45 pm
-------------------------2017-02-08 04:07:50 pm
-------------------------2017-02-08 04:07:55 pm
-------------------------2017-02-08 04:08:00 pm
-------------------------2017-02-08 04:08:05 pm
-------------------------2017-02-08 04:08:10 pm
-------------------------2017-02-08 04:08:15 pm
-------------------------2017-02-08 04:08:20 pm
-------------------------2017-02-08 04:08:25 pm
-------------------------2017-02-08 04:08:30 pm
-------------------------2017-02-08 04:08:35 pm
-------------------------2017-02-08 04:08:40 pm
-------------------------2017-02-08 04:08:45 pm
-------------------------2017-02-08 04:08:50 pm
-------------------------2017-02-08 04:08:55 pm
-------------------------2017-02-08 04:09:00 pm
-------------------------2017-02-08 04:09:05 pm
-------------------------2017-02-08 04:09:10 pm
-------------------------2017-02-08 04:09:15 pm
-------------------------2017-02-08 04:09:20 pm
-------------------------2017-02-08 04:09:25 pm
-------------------------2017-02-08 04:09:30 pm
-------------------------2017-02-08 04:09:35 pm
-------------------------2017-02-08 04:09:40 pm
-------------------------2017-02-08 04:09:45 pm
-------------------------2017-02-08 04:09:50 pm
-------------------------2017-02-08 04:09:55 pm
-------------------------2017-02-08 04:10:00 pm
-------------------------2017-02-08 04:10:05 pm
-------------------------2017-02-08 04:10:10 pm
-------------------------2017-02-08 04:10:15 pm
-------------------------2017-02-08 04:10:20 pm
-------------------------2017-02-08 04:10:25 pm
-------------------------2017-02-08 04:10:30 pm
-------------------------2017-02-08 04:10:35 pm
-------------------------2017-02-08 04:10:40 pm
-------------------------2017-02-08 04:10:45 pm
-------------------------2017-02-08 04:10:50 pm
-------------------------2017-02-08 04:10:55 pm
-------------------------2017-02-08 04:11:00 pm
-------------------------2017-02-08 04:11:05 pm
-------------------------2017-02-08 04:11:10 pm
-------------------------2017-02-08 04:11:15 pm
-------------------------2017-02-08 04:11:20 pm
-------------------------2017-02-08 04:11:25 pm
-------------------------2017-02-08 04:11:30 pm
-------------------------2017-02-08 04:11:35 pm
-------------------------2017-02-08 04:11:40 pm
-------------------------2017-02-08 04:11:45 pm
-------------------------2017-02-08 04:11:50 pm
-------------------------2017-02-08 04:11:55 pm
-------------------------2017-02-08 04:12:00 pm
-------------------------2017-02-08 04:12:05 pm
-------------------------2017-02-08 04:12:10 pm
-------------------------2017-02-08 04:12:15 pm
-------------------------2017-02-08 04:12:20 pm
-------------------------2017-02-08 04:12:25 pm
-------------------------2017-02-08 04:12:30 pm
-------------------------2017-02-08 04:12:35 pm
-------------------------2017-02-08 04:12:40 pm
-------------------------2017-02-08 04:12:45 pm
-------------------------2017-02-08 04:12:50 pm
-------------------------2017-02-08 04:12:55 pm
-------------------------2017-02-08 04:13:00 pm
-------------------------2017-02-08 04:13:05 pm
-------------------------2017-02-08 04:13:10 pm
-------------------------2017-02-08 04:13:15 pm
-------------------------2017-02-08 04:13:20 pm
-------------------------2017-02-08 04:13:25 pm
-------------------------2017-02-08 04:13:30 pm
-------------------------2017-02-08 04:13:35 pm
-------------------------2017-02-08 04:13:40 pm
-------------------------2017-02-08 04:13:45 pm
-------------------------2017-02-08 04:13:50 pm
-------------------------2017-02-08 04:13:55 pm
-------------------------2017-02-08 04:14:00 pm
-------------------------2017-02-08 04:14:05 pm
-------------------------2017-02-08 04:14:10 pm
-------------------------2017-02-08 04:14:15 pm
-------------------------2017-02-08 04:14:20 pm
-------------------------2017-02-08 04:14:25 pm
-------------------------2017-02-08 04:14:30 pm
-------------------------2017-02-08 04:14:35 pm
-------------------------2017-02-08 04:14:40 pm
-------------------------2017-02-08 04:14:45 pm
-------------------------2017-02-08 04:14:50 pm
-------------------------2017-02-08 04:14:55 pm
-------------------------2017-02-08 04:15:00 pm
-------------------------2017-02-08 04:15:05 pm
-------------------------2017-02-08 04:15:10 pm
-------------------------2017-02-08 04:15:15 pm
-------------------------2017-02-08 04:15:20 pm
-------------------------2017-02-08 04:15:25 pm
-------------------------2017-02-08 04:15:30 pm
-------------------------2017-02-08 04:15:35 pm
-------------------------2017-02-08 04:15:40 pm
-------------------------2017-02-08 04:15:45 pm
-------------------------2017-02-08 04:15:50 pm
-------------------------2017-02-08 04:15:55 pm
-------------------------2017-02-08 04:16:00 pm
-------------------------2017-02-08 04:16:05 pm
-------------------------2017-02-08 04:16:10 pm
-------------------------2017-02-08 04:16:15 pm
-------------------------2017-02-08 04:16:20 pm
-------------------------2017-02-08 04:16:25 pm
-------------------------2017-02-08 04:16:30 pm
-------------------------2017-02-08 04:16:35 pm
-------------------------2017-02-08 04:16:40 pm
-------------------------2017-02-08 04:16:45 pm
-------------------------2017-02-08 04:16:50 pm
-------------------------2017-02-08 04:16:55 pm
-------------------------2017-02-08 04:17:00 pm
-------------------------2017-02-08 04:17:05 pm
-------------------------2017-02-08 04:17:10 pm
-------------------------2017-02-08 04:17:15 pm
-------------------------2017-02-08 04:17:20 pm
-------------------------2017-02-08 04:17:25 pm
-------------------------2017-02-08 04:17:30 pm
-------------------------2017-02-08 04:17:35 pm
-------------------------2017-02-08 04:17:40 pm
-------------------------2017-02-08 04:17:45 pm
-------------------------2017-02-08 04:17:50 pm
-------------------------2017-02-08 04:17:55 pm
-------------------------2017-02-08 04:18:00 pm
-------------------------2017-02-08 04:18:05 pm
-------------------------2017-02-08 04:18:10 pm
-------------------------2017-02-08 04:18:15 pm
-------------------------2017-02-08 04:18:20 pm
-------------------------2017-02-08 04:18:25 pm
-------------------------2017-02-08 04:18:30 pm
-------------------------2017-02-08 04:18:35 pm
-------------------------2017-02-08 04:18:40 pm
-------------------------2017-02-08 04:18:45 pm
-------------------------2017-02-08 04:18:50 pm
-------------------------2017-02-08 04:18:55 pm
-------------------------2017-02-08 04:19:00 pm
-------------------------2017-02-08 04:19:05 pm
-------------------------2017-02-08 04:19:10 pm
-------------------------2017-02-08 04:19:15 pm
-------------------------2017-02-08 04:19:20 pm
-------------------------2017-02-08 04:19:25 pm
-------------------------2017-02-08 04:19:30 pm
-------------------------2017-02-08 04:19:35 pm
-------------------------2017-02-08 04:19:40 pm
-------------------------2017-02-08 04:19:45 pm
-------------------------2017-02-08 04:19:50 pm
-------------------------2017-02-08 04:19:55 pm
-------------------------2017-02-08 04:20:00 pm
-------------------------2017-02-08 04:20:05 pm
-------------------------2017-02-08 04:20:10 pm
-------------------------2017-02-08 04:20:15 pm
-------------------------2017-02-08 04:20:20 pm
-------------------------2017-02-08 04:20:25 pm
-------------------------2017-02-08 04:20:30 pm
-------------------------2017-02-08 04:20:35 pm
-------------------------2017-02-08 04:20:40 pm
-------------------------2017-02-08 04:20:45 pm
-------------------------2017-02-08 04:20:50 pm
-------------------------2017-02-08 04:20:55 pm
-------------------------2017-02-08 04:21:00 pm
-------------------------2017-02-08 04:21:05 pm
-------------------------2017-02-08 04:21:10 pm
-------------------------2017-02-08 04:21:15 pm
-------------------------2017-02-08 04:21:20 pm
-------------------------2017-02-08 04:21:25 pm
-------------------------2017-02-08 04:21:30 pm
-------------------------2017-02-08 04:21:35 pm
-------------------------2017-02-08 04:21:40 pm
-------------------------2017-02-08 04:21:45 pm
-------------------------2017-02-08 04:21:50 pm
-------------------------2017-02-08 04:21:55 pm
-------------------------2017-02-08 04:22:00 pm
-------------------------2017-02-08 04:22:05 pm
-------------------------2017-02-08 04:22:10 pm
-------------------------2017-02-08 04:22:15 pm
-------------------------2017-02-08 04:22:20 pm
-------------------------2017-02-08 04:22:25 pm
-------------------------2017-02-08 04:22:30 pm
-------------------------2017-02-08 04:22:35 pm
-------------------------2017-02-08 04:22:40 pm
-------------------------2017-02-08 04:22:45 pm
-------------------------2017-02-08 04:22:50 pm
-------------------------2017-02-08 04:22:55 pm
-------------------------2017-02-08 04:23:00 pm
-------------------------2017-02-08 04:23:05 pm
-------------------------2017-02-08 04:23:10 pm
-------------------------2017-02-08 04:23:15 pm
-------------------------2017-02-08 04:23:20 pm
-------------------------2017-02-08 04:23:25 pm
-------------------------2017-02-08 04:23:30 pm
-------------------------2017-02-08 04:23:35 pm
-------------------------2017-02-08 04:23:40 pm
-------------------------2017-02-08 04:23:45 pm
-------------------------2017-02-08 04:23:50 pm
-------------------------2017-02-08 04:23:55 pm
-------------------------2017-02-08 04:24:00 pm
-------------------------2017-02-08 04:24:05 pm
-------------------------2017-02-08 04:24:10 pm
-------------------------2017-02-08 04:24:15 pm
-------------------------2017-02-08 04:24:20 pm
-------------------------2017-02-08 04:24:25 pm
-------------------------2017-02-08 04:24:30 pm
-------------------------2017-02-08 04:24:35 pm
-------------------------2017-02-08 04:24:40 pm
-------------------------2017-02-08 04:24:45 pm
-------------------------2017-02-08 04:24:50 pm
-------------------------2017-02-08 04:24:55 pm
-------------------------2017-02-08 04:25:00 pm
-------------------------2017-02-08 04:25:05 pm
-------------------------2017-02-08 04:25:10 pm
-------------------------2017-02-08 04:25:15 pm
-------------------------2017-02-08 04:25:20 pm
-------------------------2017-02-08 04:25:25 pm
-------------------------2017-02-08 04:25:30 pm
-------------------------2017-02-08 04:25:35 pm
-------------------------2017-02-08 04:25:40 pm
-------------------------2017-02-08 04:25:45 pm
-------------------------2017-02-08 04:25:50 pm
-------------------------2017-02-08 04:25:55 pm
-------------------------2017-02-08 04:26:00 pm
-------------------------2017-02-08 04:26:05 pm
-------------------------2017-02-08 04:26:10 pm
-------------------------2017-02-08 04:26:15 pm
-------------------------2017-02-08 04:26:20 pm
-------------------------2017-02-08 04:26:25 pm
-------------------------2017-02-08 04:26:30 pm
-------------------------2017-02-08 04:26:35 pm
-------------------------2017-02-08 04:26:40 pm
-------------------------2017-02-08 04:26:45 pm
-------------------------2017-02-08 04:26:50 pm
-------------------------2017-02-08 04:26:55 pm
-------------------------2017-02-08 04:27:00 pm
-------------------------2017-02-08 04:27:05 pm
-------------------------2017-02-08 04:27:10 pm
-------------------------2017-02-08 04:27:15 pm
-------------------------2017-02-08 04:27:20 pm
-------------------------2017-02-08 04:27:25 pm
-------------------------2017-02-08 04:27:30 pm
-------------------------2017-02-08 04:27:35 pm
-------------------------2017-02-08 04:27:40 pm
-------------------------2017-02-08 04:27:45 pm
-------------------------2017-02-08 04:27:50 pm
-------------------------2017-02-08 04:27:55 pm
-------------------------2017-02-08 04:28:00 pm
-------------------------2017-02-08 04:28:05 pm
-------------------------2017-02-08 04:28:10 pm
-------------------------2017-02-08 04:28:15 pm
-------------------------2017-02-08 04:28:20 pm
-------------------------2017-02-08 04:28:25 pm
-------------------------2017-02-08 04:28:30 pm
-------------------------2017-02-08 04:28:35 pm
-------------------------2017-02-08 04:28:40 pm
-------------------------2017-02-08 04:28:45 pm
-------------------------2017-02-08 04:28:50 pm
-------------------------2017-02-08 04:28:55 pm
-------------------------2017-02-08 04:29:00 pm
-------------------------2017-02-08 04:29:05 pm
-------------------------2017-02-08 04:29:10 pm
-------------------------2017-02-08 04:29:15 pm
-------------------------2017-02-08 04:29:20 pm
-------------------------2017-02-08 04:29:25 pm
-------------------------2017-02-08 04:29:30 pm
-------------------------2017-02-08 04:29:35 pm
-------------------------2017-02-08 04:29:40 pm
-------------------------2017-02-08 04:29:45 pm
-------------------------2017-02-08 04:29:50 pm
-------------------------2017-02-08 04:29:55 pm
-------------------------2017-02-08 04:30:00 pm
-------------------------2017-02-08 04:30:05 pm
-------------------------2017-02-08 04:30:10 pm
-------------------------2017-02-08 04:30:15 pm
-------------------------2017-02-08 04:30:20 pm
-------------------------2017-02-08 04:30:25 pm
-------------------------2017-02-08 04:30:30 pm
-------------------------2017-02-08 04:30:35 pm
-------------------------2017-02-08 04:30:40 pm
-------------------------2017-02-08 04:30:45 pm
-------------------------2017-02-08 04:30:50 pm
-------------------------2017-02-08 04:30:55 pm
-------------------------2017-02-08 04:31:00 pm
-------------------------2017-02-08 04:31:05 pm
-------------------------2017-02-08 04:31:10 pm
-------------------------2017-02-08 04:31:15 pm
-------------------------2017-02-08 04:31:20 pm
-------------------------2017-02-08 04:31:25 pm
-------------------------2017-02-08 04:31:30 pm
-------------------------2017-02-08 04:31:35 pm
-------------------------2017-02-08 04:31:40 pm
-------------------------2017-02-08 04:31:45 pm
-------------------------2017-02-08 04:31:50 pm
-------------------------2017-02-08 04:31:55 pm
-------------------------2017-02-08 04:32:00 pm
-------------------------2017-02-08 04:32:05 pm
-------------------------2017-02-08 04:32:10 pm
-------------------------2017-02-08 04:32:15 pm
-------------------------2017-02-08 04:32:20 pm
-------------------------2017-02-08 04:32:25 pm
-------------------------2017-02-08 04:32:30 pm
-------------------------2017-02-08 04:32:35 pm
-------------------------2017-02-08 04:32:40 pm
-------------------------2017-02-08 04:32:45 pm
-------------------------2017-02-08 04:32:50 pm
-------------------------2017-02-08 04:32:55 pm
-------------------------2017-02-08 04:33:00 pm
-------------------------2017-02-08 04:33:05 pm
-------------------------2017-02-08 04:33:10 pm
-------------------------2017-02-08 04:33:15 pm
-------------------------2017-02-08 04:33:20 pm
-------------------------2017-02-08 04:33:25 pm
-------------------------2017-02-08 04:33:30 pm
-------------------------2017-02-08 04:33:35 pm
-------------------------2017-02-08 04:33:40 pm
-------------------------2017-02-08 04:33:45 pm
-------------------------2017-02-08 04:33:50 pm
-------------------------2017-02-08 04:33:55 pm
-------------------------2017-02-08 04:34:00 pm
-------------------------2017-02-08 04:34:05 pm
-------------------------2017-02-08 04:34:10 pm
-------------------------2017-02-08 04:34:15 pm
-------------------------2017-02-08 04:34:20 pm
-------------------------2017-02-08 04:34:25 pm
-------------------------2017-02-08 04:34:30 pm
-------------------------2017-02-08 04:34:35 pm
-------------------------2017-02-08 04:34:40 pm
-------------------------2017-02-08 04:34:45 pm
-------------------------2017-02-08 04:34:50 pm
-------------------------2017-02-08 04:34:55 pm
-------------------------2017-02-08 04:35:00 pm
-------------------------2017-02-08 04:35:05 pm
-------------------------2017-02-08 04:35:10 pm
-------------------------2017-02-08 04:35:15 pm
-------------------------2017-02-08 04:35:20 pm
-------------------------2017-02-08 04:35:25 pm
-------------------------2017-02-08 04:35:30 pm
-------------------------2017-02-08 04:35:35 pm
-------------------------2017-02-08 04:35:40 pm
-------------------------2017-02-08 04:35:45 pm
-------------------------2017-02-08 04:35:50 pm
-------------------------2017-02-08 04:35:55 pm
-------------------------2017-02-08 04:36:00 pm
-------------------------2017-02-08 04:36:05 pm
-------------------------2017-02-08 04:36:10 pm
-------------------------2017-02-08 04:36:15 pm
-------------------------2017-02-08 04:36:20 pm
-------------------------2017-02-08 04:36:25 pm
-------------------------2017-02-08 04:36:30 pm
-------------------------2017-02-08 04:36:35 pm
-------------------------2017-02-08 04:36:40 pm
-------------------------2017-02-08 04:36:45 pm
-------------------------2017-02-08 04:36:50 pm
-------------------------2017-02-08 04:36:55 pm
-------------------------2017-02-08 04:37:00 pm
-------------------------2017-02-08 04:37:05 pm
-------------------------2017-02-08 04:37:10 pm
-------------------------2017-02-08 04:37:15 pm
-------------------------2017-02-08 04:37:20 pm
-------------------------2017-02-08 04:37:25 pm
-------------------------2017-02-08 04:37:30 pm
-------------------------2017-02-08 04:37:35 pm
-------------------------2017-02-08 04:37:40 pm
-------------------------2017-02-08 04:37:45 pm
-------------------------2017-02-08 04:37:50 pm
-------------------------2017-02-08 04:37:55 pm
-------------------------2017-02-08 04:38:00 pm
-------------------------2017-02-08 04:38:05 pm
-------------------------2017-02-08 04:38:10 pm
-------------------------2017-02-08 04:38:15 pm
-------------------------2017-02-08 04:38:20 pm
-------------------------2017-02-08 04:38:25 pm
-------------------------2017-02-08 04:38:30 pm
-------------------------2017-02-08 04:38:35 pm
-------------------------2017-02-08 04:38:40 pm
-------------------------2017-02-08 04:38:45 pm
-------------------------2017-02-08 04:38:50 pm
-------------------------2017-02-08 04:38:55 pm
-------------------------2017-02-08 04:39:00 pm
-------------------------2017-02-08 04:39:05 pm
-------------------------2017-02-08 04:39:10 pm
-------------------------2017-02-08 04:39:15 pm
-------------------------2017-02-08 04:39:20 pm
-------------------------2017-02-08 04:39:25 pm
-------------------------2017-02-08 04:39:30 pm
-------------------------2017-02-08 04:39:35 pm
-------------------------2017-02-08 04:39:40 pm
-------------------------2017-02-08 04:39:45 pm
-------------------------2017-02-08 04:39:50 pm
-------------------------2017-02-08 04:39:55 pm
-------------------------2017-02-08 04:40:00 pm
-------------------------2017-02-08 04:40:05 pm
-------------------------2017-02-08 04:40:10 pm
-------------------------2017-02-08 04:40:15 pm
-------------------------2017-02-08 04:40:20 pm
-------------------------2017-02-08 04:40:25 pm
-------------------------2017-02-08 04:40:30 pm
-------------------------2017-02-08 04:40:35 pm
-------------------------2017-02-08 04:40:40 pm
-------------------------2017-02-08 04:40:45 pm
-------------------------2017-02-08 04:40:50 pm
-------------------------2017-02-08 04:40:55 pm
-------------------------2017-02-08 04:41:00 pm
-------------------------2017-02-08 04:41:05 pm
-------------------------2017-02-08 04:41:10 pm
-------------------------2017-02-08 04:41:15 pm
-------------------------2017-02-08 04:41:20 pm
-------------------------2017-02-08 04:41:25 pm
-------------------------2017-02-08 04:41:30 pm
-------------------------2017-02-08 04:41:35 pm
-------------------------2017-02-08 04:41:40 pm
-------------------------2017-02-08 04:41:45 pm
-------------------------2017-02-08 04:41:50 pm
-------------------------2017-02-08 04:41:55 pm
-------------------------2017-02-08 04:42:00 pm
-------------------------2017-02-08 04:42:05 pm
-------------------------2017-02-08 04:42:10 pm
-------------------------2017-02-08 04:42:15 pm
-------------------------2017-02-08 04:42:20 pm
-------------------------2017-02-08 04:42:25 pm
-------------------------2017-02-08 04:42:30 pm
-------------------------2017-02-08 04:42:35 pm
-------------------------2017-02-08 04:42:40 pm
-------------------------2017-02-08 04:42:45 pm
-------------------------2017-02-08 04:42:50 pm
-------------------------2017-02-08 04:42:55 pm
-------------------------2017-02-08 04:43:00 pm
-------------------------2017-02-08 04:43:05 pm
-------------------------2017-02-08 04:43:10 pm
-------------------------2017-02-08 04:43:15 pm
-------------------------2017-02-08 04:43:20 pm
-------------------------2017-02-08 04:43:25 pm
-------------------------2017-02-08 04:43:30 pm
-------------------------2017-02-08 04:43:35 pm
-------------------------2017-02-08 04:43:40 pm
-------------------------2017-02-08 04:43:45 pm
-------------------------2017-02-08 04:43:50 pm
-------------------------2017-02-08 04:43:55 pm
-------------------------2017-02-08 04:44:00 pm
-------------------------2017-02-08 04:44:05 pm
-------------------------2017-02-08 04:44:10 pm
-------------------------2017-02-08 04:44:15 pm
-------------------------2017-02-08 04:44:20 pm
-------------------------2017-02-08 04:44:25 pm
-------------------------2017-02-08 04:44:30 pm
-------------------------2017-02-08 04:44:35 pm
-------------------------2017-02-08 04:44:40 pm
-------------------------2017-02-08 04:44:45 pm
-------------------------2017-02-08 04:44:50 pm
-------------------------2017-02-08 04:44:55 pm
-------------------------2017-02-08 04:45:00 pm
-------------------------2017-02-08 04:45:05 pm
-------------------------2017-02-08 04:45:10 pm
-------------------------2017-02-08 04:45:15 pm
-------------------------2017-02-08 04:45:20 pm
-------------------------2017-02-08 04:45:25 pm
-------------------------2017-02-08 04:45:30 pm
-------------------------2017-02-08 04:45:35 pm
-------------------------2017-02-08 04:45:40 pm
-------------------------2017-02-08 04:45:45 pm
-------------------------2017-02-08 04:45:50 pm
-------------------------2017-02-08 04:45:55 pm
-------------------------2017-02-08 04:46:00 pm
-------------------------2017-02-08 04:46:05 pm
-------------------------2017-02-08 04:46:10 pm
-------------------------2017-02-08 04:46:15 pm
-------------------------2017-02-08 04:46:20 pm
-------------------------2017-02-08 04:46:25 pm
-------------------------2017-02-08 04:46:30 pm
-------------------------2017-02-08 04:46:35 pm
-------------------------2017-02-08 04:46:40 pm
-------------------------2017-02-08 04:46:45 pm
-------------------------2017-02-08 04:46:50 pm
-------------------------2017-02-08 04:46:55 pm
-------------------------2017-02-08 04:47:00 pm
-------------------------2017-02-08 04:47:05 pm
-------------------------2017-02-08 04:47:10 pm
-------------------------2017-02-08 04:47:15 pm
-------------------------2017-02-08 04:47:20 pm
-------------------------2017-02-08 04:47:25 pm
-------------------------2017-02-08 04:47:30 pm
-------------------------2017-02-08 04:47:35 pm
-------------------------2017-02-08 04:47:40 pm
-------------------------2017-02-08 04:47:45 pm
-------------------------2017-02-08 04:47:50 pm
-------------------------2017-02-08 04:47:55 pm
-------------------------2017-02-08 04:48:00 pm
-------------------------2017-02-08 04:48:05 pm
-------------------------2017-02-08 04:48:10 pm
-------------------------2017-02-08 04:48:15 pm
-------------------------2017-02-08 04:48:20 pm
-------------------------2017-02-08 04:48:25 pm
-------------------------2017-02-08 04:48:30 pm
-------------------------2017-02-08 04:48:35 pm
-------------------------2017-02-08 04:48:40 pm
-------------------------2017-02-08 04:48:45 pm
-------------------------2017-02-08 04:48:50 pm
-------------------------2017-02-08 04:48:55 pm
-------------------------2017-02-08 04:49:00 pm
-------------------------2017-02-08 04:49:05 pm
-------------------------2017-02-08 04:49:10 pm
-------------------------2017-02-08 04:49:15 pm
-------------------------2017-02-08 04:49:20 pm
-------------------------2017-02-08 04:49:25 pm
-------------------------2017-02-08 04:49:30 pm
-------------------------2017-02-08 04:49:35 pm
-------------------------2017-02-08 04:49:40 pm
-------------------------2017-02-08 04:49:45 pm
-------------------------2017-02-08 04:49:50 pm
-------------------------2017-02-08 04:49:55 pm
-------------------------2017-02-08 04:50:00 pm
-------------------------2017-02-08 04:50:05 pm
-------------------------2017-02-08 04:50:10 pm
-------------------------2017-02-08 04:50:15 pm
-------------------------2017-02-08 04:50:20 pm
-------------------------2017-02-08 04:50:25 pm
-------------------------2017-02-08 04:50:30 pm
-------------------------2017-02-08 04:50:35 pm
-------------------------2017-02-08 04:50:40 pm
-------------------------2017-02-08 04:50:45 pm
-------------------------2017-02-08 04:50:50 pm
-------------------------2017-02-08 04:50:55 pm
-------------------------2017-02-08 04:51:00 pm
-------------------------2017-02-08 04:51:05 pm
-------------------------2017-02-08 04:51:10 pm
-------------------------2017-02-08 04:51:15 pm
-------------------------2017-02-08 04:51:20 pm
-------------------------2017-02-08 04:51:25 pm
-------------------------2017-02-08 04:51:30 pm
-------------------------2017-02-08 04:51:35 pm
-------------------------2017-02-08 04:51:40 pm
-------------------------2017-02-08 04:51:45 pm
-------------------------2017-02-08 04:51:50 pm
-------------------------2017-02-08 04:51:55 pm
-------------------------2017-02-08 04:52:00 pm
-------------------------2017-02-08 04:52:05 pm
-------------------------2017-02-08 04:52:10 pm
-------------------------2017-02-08 04:52:15 pm
-------------------------2017-02-08 04:52:20 pm
-------------------------2017-02-08 04:52:25 pm
-------------------------2017-02-08 04:52:30 pm
-------------------------2017-02-08 04:52:35 pm
-------------------------2017-02-08 04:52:40 pm
-------------------------2017-02-08 04:52:45 pm
-------------------------2017-02-08 04:52:50 pm
-------------------------2017-02-08 04:52:55 pm
-------------------------2017-02-08 04:53:00 pm
-------------------------2017-02-08 04:53:05 pm
-------------------------2017-02-08 04:53:10 pm
-------------------------2017-02-08 04:53:15 pm
-------------------------2017-02-08 04:53:20 pm
-------------------------2017-02-08 04:53:25 pm
-------------------------2017-02-08 04:53:30 pm
-------------------------2017-02-08 04:53:35 pm
-------------------------2017-02-08 04:53:40 pm
-------------------------2017-02-08 04:53:45 pm
-------------------------2017-02-08 04:53:50 pm
-------------------------2017-02-08 04:53:55 pm
-------------------------2017-02-08 04:54:00 pm
-------------------------2017-02-08 04:54:05 pm
-------------------------2017-02-08 04:54:10 pm
-------------------------2017-02-08 04:54:15 pm
-------------------------2017-02-08 04:54:20 pm
-------------------------2017-02-08 04:54:25 pm
-------------------------2017-02-08 04:54:30 pm
-------------------------2017-02-08 04:54:35 pm
-------------------------2017-02-08 04:54:40 pm
-------------------------2017-02-08 04:54:45 pm
-------------------------2017-02-08 04:54:50 pm
-------------------------2017-02-08 04:54:55 pm
-------------------------2017-02-08 04:55:00 pm
-------------------------2017-02-08 04:55:05 pm
-------------------------2017-02-08 04:55:10 pm
-------------------------2017-02-08 04:55:15 pm
-------------------------2017-02-08 04:55:20 pm
-------------------------2017-02-08 04:55:25 pm
-------------------------2017-02-08 04:55:30 pm
-------------------------2017-02-08 04:55:35 pm
-------------------------2017-02-08 04:55:40 pm
-------------------------2017-02-08 04:55:45 pm
-------------------------2017-02-08 04:55:50 pm
-------------------------2017-02-08 04:55:55 pm
-------------------------2017-02-08 04:56:00 pm
-------------------------2017-02-08 04:56:05 pm
-------------------------2017-02-08 04:56:10 pm
-------------------------2017-02-08 04:56:15 pm
-------------------------2017-02-08 04:56:20 pm
-------------------------2017-02-08 04:56:25 pm
-------------------------2017-02-08 04:56:30 pm
-------------------------2017-02-08 04:56:35 pm
-------------------------2017-02-08 04:56:40 pm
-------------------------2017-02-08 04:56:45 pm
-------------------------2017-02-08 04:56:50 pm
-------------------------2017-02-08 04:56:55 pm
-------------------------2017-02-08 04:57:00 pm
-------------------------2017-02-08 04:57:05 pm
-------------------------2017-02-08 04:57:10 pm
-------------------------2017-02-08 04:57:15 pm
-------------------------2017-02-08 04:57:20 pm
-------------------------2017-02-08 04:57:25 pm
-------------------------2017-02-08 04:57:30 pm
-------------------------2017-02-08 04:57:35 pm
-------------------------2017-02-08 04:57:40 pm
-------------------------2017-02-08 04:57:45 pm
-------------------------2017-02-08 04:57:50 pm
-------------------------2017-02-08 04:57:55 pm
-------------------------2017-02-08 04:58:00 pm
-------------------------2017-02-08 04:58:05 pm
-------------------------2017-02-08 04:58:10 pm
-------------------------2017-02-08 04:58:15 pm
-------------------------2017-02-08 04:58:20 pm
-------------------------2017-02-08 04:58:25 pm
-------------------------2017-02-08 04:58:30 pm
-------------------------2017-02-08 04:58:35 pm
-------------------------2017-02-08 04:58:40 pm
-------------------------2017-02-08 04:58:45 pm
-------------------------2017-02-08 04:58:50 pm
-------------------------2017-02-08 04:58:55 pm
-------------------------2017-02-08 04:59:00 pm
-------------------------2017-02-08 04:59:05 pm
-------------------------2017-02-08 04:59:10 pm
-------------------------2017-02-08 04:59:15 pm
-------------------------2017-02-08 04:59:20 pm
-------------------------2017-02-08 04:59:25 pm
-------------------------2017-02-08 04:59:30 pm
-------------------------2017-02-08 04:59:35 pm
-------------------------2017-02-08 04:59:40 pm
-------------------------2017-02-08 04:59:45 pm
-------------------------2017-02-08 04:59:50 pm
-------------------------2017-02-08 04:59:55 pm
-------------------------2017-02-08 05:00:00 pm
-------------------------2017-02-08 05:00:05 pm
-------------------------2017-02-08 05:00:10 pm
-------------------------2017-02-08 05:00:15 pm
-------------------------2017-02-08 05:00:20 pm
-------------------------2017-02-08 05:00:25 pm
-------------------------2017-02-08 05:00:30 pm
-------------------------2017-02-08 05:00:35 pm
-------------------------2017-02-08 05:00:40 pm
-------------------------2017-02-08 05:00:45 pm
-------------------------2017-02-08 05:00:50 pm
-------------------------2017-02-08 05:00:55 pm
-------------------------2017-02-08 05:01:00 pm
-------------------------2017-02-08 05:01:05 pm
-------------------------2017-02-08 05:01:10 pm
-------------------------2017-02-08 05:01:15 pm
-------------------------2017-02-08 05:01:20 pm
-------------------------2017-02-08 05:01:25 pm
-------------------------2017-02-08 05:01:30 pm
-------------------------2017-02-08 05:01:35 pm
-------------------------2017-02-08 05:01:40 pm
-------------------------2017-02-08 05:01:45 pm
-------------------------2017-02-08 05:01:50 pm
-------------------------2017-02-08 05:01:55 pm
-------------------------2017-02-08 05:02:00 pm
-------------------------2017-02-08 05:02:05 pm
-------------------------2017-02-08 05:02:10 pm
-------------------------2017-02-08 05:02:15 pm
-------------------------2017-02-08 05:02:20 pm
-------------------------2017-02-08 05:02:25 pm
-------------------------2017-02-08 05:02:30 pm
-------------------------2017-02-08 05:02:35 pm
-------------------------2017-02-08 05:02:40 pm
-------------------------2017-02-08 05:02:45 pm
-------------------------2017-02-08 05:02:50 pm
-------------------------2017-02-08 05:02:55 pm
-------------------------2017-02-08 05:03:00 pm
-------------------------2017-02-08 05:03:05 pm
-------------------------2017-02-08 05:03:10 pm
-------------------------2017-02-08 05:03:15 pm
-------------------------2017-02-08 05:03:20 pm
-------------------------2017-02-08 05:03:25 pm
-------------------------2017-02-08 05:03:30 pm
-------------------------2017-02-08 05:03:35 pm
-------------------------2017-02-08 05:03:40 pm
-------------------------2017-02-08 05:03:45 pm
-------------------------2017-02-08 05:03:50 pm
-------------------------2017-02-08 05:03:55 pm
-------------------------2017-02-08 05:04:00 pm
-------------------------2017-02-08 05:04:05 pm
-------------------------2017-02-08 05:04:10 pm
-------------------------2017-02-08 05:04:15 pm
-------------------------2017-02-08 05:04:20 pm
-------------------------2017-02-08 05:04:25 pm
-------------------------2017-02-08 05:04:30 pm
-------------------------2017-02-08 05:04:35 pm
-------------------------2017-02-08 05:04:40 pm
-------------------------2017-02-08 05:04:45 pm
-------------------------2017-02-08 05:04:50 pm
-------------------------2017-02-08 05:04:55 pm
-------------------------2017-02-08 05:05:00 pm
-------------------------2017-02-08 05:05:05 pm
-------------------------2017-02-08 05:05:10 pm
-------------------------2017-02-08 05:05:15 pm
-------------------------2017-02-08 05:05:20 pm
-------------------------2017-02-08 05:05:25 pm
-------------------------2017-02-08 05:05:30 pm
-------------------------2017-02-08 05:05:35 pm
-------------------------2017-02-08 05:05:40 pm
-------------------------2017-02-08 05:05:45 pm
-------------------------2017-02-08 05:05:50 pm
-------------------------2017-02-08 05:05:55 pm
-------------------------2017-02-08 05:06:00 pm
-------------------------2017-02-08 05:06:05 pm
-------------------------2017-02-08 05:06:10 pm
-------------------------2017-02-08 05:06:15 pm
-------------------------2017-02-08 05:06:20 pm
-------------------------2017-02-08 05:06:25 pm
-------------------------2017-02-08 05:06:30 pm
-------------------------2017-02-08 05:06:35 pm
-------------------------2017-02-08 05:06:40 pm
-------------------------2017-02-08 05:06:45 pm
-------------------------2017-02-08 05:06:50 pm
-------------------------2017-02-08 05:06:55 pm
-------------------------2017-02-08 05:07:00 pm
-------------------------2017-02-08 05:07:05 pm
-------------------------2017-02-08 05:07:10 pm
-------------------------2017-02-08 05:07:15 pm
-------------------------2017-02-08 05:07:20 pm
-------------------------2017-02-08 05:07:25 pm
-------------------------2017-02-08 05:07:30 pm
-------------------------2017-02-08 05:07:35 pm
-------------------------2017-02-08 05:07:40 pm
-------------------------2017-02-08 05:07:45 pm
-------------------------2017-02-08 05:07:50 pm
-------------------------2017-02-08 05:07:55 pm
-------------------------2017-02-08 05:08:00 pm
-------------------------2017-02-08 05:08:05 pm
-------------------------2017-02-08 05:08:10 pm
-------------------------2017-02-08 05:08:15 pm
-------------------------2017-02-08 05:08:20 pm
-------------------------2017-02-08 05:08:25 pm
-------------------------2017-02-08 05:08:30 pm
-------------------------2017-02-08 05:08:35 pm
-------------------------2017-02-08 05:08:40 pm
-------------------------2017-02-08 05:08:45 pm
-------------------------2017-02-08 05:08:50 pm
-------------------------2017-02-08 05:08:55 pm
-------------------------2017-02-08 05:09:00 pm
-------------------------2017-02-08 05:09:05 pm
-------------------------2017-02-08 05:09:10 pm
-------------------------2017-02-08 05:09:15 pm
-------------------------2017-02-08 05:09:20 pm
-------------------------2017-02-08 05:09:25 pm
-------------------------2017-02-08 05:09:30 pm
-------------------------2017-02-08 05:09:35 pm
-------------------------2017-02-08 05:09:40 pm
-------------------------2017-02-08 05:09:45 pm
-------------------------2017-02-08 05:09:50 pm
-------------------------2017-02-08 05:09:55 pm
-------------------------2017-02-08 05:10:00 pm
-------------------------2017-02-08 05:10:05 pm
-------------------------2017-02-08 05:10:10 pm
-------------------------2017-02-08 05:10:15 pm
-------------------------2017-02-08 05:10:20 pm
-------------------------2017-02-08 05:10:25 pm
-------------------------2017-02-08 05:10:30 pm
-------------------------2017-02-08 05:10:35 pm
-------------------------2017-02-08 05:10:40 pm
-------------------------2017-02-08 05:10:45 pm
-------------------------2017-02-08 05:10:50 pm
-------------------------2017-02-08 05:10:55 pm
-------------------------2017-02-08 05:11:00 pm
-------------------------2017-02-08 05:11:05 pm
-------------------------2017-02-08 05:11:10 pm
-------------------------2017-02-08 05:11:15 pm
-------------------------2017-02-08 05:11:20 pm
-------------------------2017-02-08 05:11:25 pm
-------------------------2017-02-08 05:11:30 pm
-------------------------2017-02-08 05:11:35 pm
-------------------------2017-02-08 05:11:40 pm
-------------------------2017-02-08 05:11:45 pm
-------------------------2017-02-08 05:11:50 pm
-------------------------2017-02-08 05:11:55 pm
-------------------------2017-02-08 05:12:00 pm
-------------------------2017-02-08 05:12:05 pm
-------------------------2017-02-08 05:12:10 pm
-------------------------2017-02-08 05:12:15 pm
-------------------------2017-02-08 05:12:20 pm
-------------------------2017-02-08 05:12:25 pm
-------------------------2017-02-08 05:12:30 pm
-------------------------2017-02-08 05:12:35 pm
-------------------------2017-02-08 05:12:40 pm
-------------------------2017-02-08 05:12:45 pm
-------------------------2017-02-08 05:12:50 pm
-------------------------2017-02-08 05:12:55 pm
-------------------------2017-02-08 05:13:00 pm
-------------------------2017-02-08 05:13:05 pm
-------------------------2017-02-08 05:13:10 pm
-------------------------2017-02-08 05:13:15 pm
-------------------------2017-02-08 05:13:20 pm
-------------------------2017-02-08 05:13:25 pm
-------------------------2017-02-08 05:13:30 pm
-------------------------2017-02-08 05:13:35 pm
-------------------------2017-02-08 05:13:40 pm
-------------------------2017-02-08 05:13:45 pm
-------------------------2017-02-08 05:13:50 pm
-------------------------2017-02-08 05:13:55 pm
-------------------------2017-02-08 05:14:00 pm
-------------------------2017-02-08 05:14:05 pm
-------------------------2017-02-08 05:14:10 pm
-------------------------2017-02-08 05:14:15 pm
-------------------------2017-02-08 05:14:20 pm
-------------------------2017-02-08 05:14:25 pm
-------------------------2017-02-08 05:14:30 pm
-------------------------2017-02-08 05:14:35 pm
-------------------------2017-02-08 05:14:40 pm
-------------------------2017-02-08 05:14:45 pm
-------------------------2017-02-08 05:14:50 pm
-------------------------2017-02-08 05:14:55 pm
-------------------------2017-02-08 05:15:00 pm
-------------------------2017-02-08 05:15:05 pm
-------------------------2017-02-08 05:15:10 pm
-------------------------2017-02-08 05:15:15 pm
-------------------------2017-02-08 05:15:20 pm
-------------------------2017-02-08 05:15:25 pm
-------------------------2017-02-08 05:15:30 pm
-------------------------2017-02-08 05:15:35 pm
-------------------------2017-02-08 05:15:40 pm
-------------------------2017-02-08 05:15:45 pm
-------------------------2017-02-08 05:15:50 pm
-------------------------2017-02-08 05:15:55 pm
-------------------------2017-02-08 05:16:00 pm
-------------------------2017-02-08 05:16:05 pm
-------------------------2017-02-08 05:16:10 pm
-------------------------2017-02-08 05:16:15 pm
-------------------------2017-02-08 05:16:20 pm
-------------------------2017-02-08 05:16:25 pm
-------------------------2017-02-08 05:16:30 pm
-------------------------2017-02-08 05:16:35 pm
-------------------------2017-02-08 05:16:40 pm
-------------------------2017-02-08 05:16:45 pm
-------------------------2017-02-08 05:16:50 pm
-------------------------2017-02-08 05:16:55 pm
-------------------------2017-02-08 05:17:00 pm
-------------------------2017-02-08 05:17:05 pm
-------------------------2017-02-08 05:17:10 pm
-------------------------2017-02-08 05:17:15 pm
-------------------------2017-02-08 05:17:20 pm
-------------------------2017-02-08 05:17:25 pm
-------------------------2017-02-08 05:17:30 pm
-------------------------2017-02-08 05:17:35 pm
-------------------------2017-02-08 05:17:40 pm
-------------------------2017-02-08 05:17:45 pm
-------------------------2017-02-08 05:17:50 pm
-------------------------2017-02-08 05:17:55 pm
-------------------------2017-02-08 05:18:00 pm
-------------------------2017-02-08 05:18:05 pm
-------------------------2017-02-08 05:18:10 pm
-------------------------2017-02-08 05:18:15 pm
-------------------------2017-02-08 05:18:20 pm
-------------------------2017-02-08 05:18:25 pm
-------------------------2017-02-08 05:18:30 pm
-------------------------2017-02-08 05:18:35 pm
-------------------------2017-02-08 05:18:40 pm
-------------------------2017-02-08 05:18:45 pm
-------------------------2017-02-08 05:18:50 pm
-------------------------2017-02-08 05:18:55 pm
-------------------------2017-02-08 05:19:00 pm
-------------------------2017-02-08 05:19:05 pm
-------------------------2017-02-08 05:19:10 pm
-------------------------2017-02-08 05:19:15 pm
-------------------------2017-02-08 05:19:20 pm
-------------------------2017-02-08 05:19:25 pm
-------------------------2017-02-08 05:19:30 pm
-------------------------2017-02-08 05:19:35 pm
-------------------------2017-02-08 05:19:40 pm
-------------------------2017-02-08 05:19:45 pm
-------------------------2017-02-08 05:19:50 pm
-------------------------2017-02-08 05:19:55 pm
-------------------------2017-02-08 05:20:00 pm
-------------------------2017-02-08 05:20:05 pm
-------------------------2017-02-08 05:20:10 pm
-------------------------2017-02-08 05:20:15 pm
-------------------------2017-02-08 05:20:20 pm
-------------------------2017-02-08 05:20:25 pm
-------------------------2017-02-08 05:20:30 pm
-------------------------2017-02-08 05:20:35 pm
-------------------------2017-02-08 05:20:40 pm
-------------------------2017-02-08 05:20:45 pm
-------------------------2017-02-08 05:20:50 pm
-------------------------2017-02-08 05:20:55 pm
-------------------------2017-02-08 05:21:00 pm
-------------------------2017-02-08 05:21:05 pm
-------------------------2017-02-08 05:21:10 pm
-------------------------2017-02-08 05:21:15 pm
-------------------------2017-02-08 05:21:20 pm
-------------------------2017-02-08 05:21:25 pm
-------------------------2017-02-08 05:21:30 pm
-------------------------2017-02-08 05:21:35 pm
-------------------------2017-02-08 05:21:40 pm
-------------------------2017-02-08 05:21:45 pm
-------------------------2017-02-08 05:21:50 pm
-------------------------2017-02-08 05:21:55 pm
-------------------------2017-02-08 05:22:00 pm
-------------------------2017-02-08 05:22:05 pm
-------------------------2017-02-08 05:22:10 pm
-------------------------2017-02-08 05:22:15 pm
-------------------------2017-02-08 05:22:20 pm
-------------------------2017-02-08 05:22:25 pm
-------------------------2017-02-08 05:22:30 pm
-------------------------2017-02-08 05:22:35 pm
-------------------------2017-02-08 05:22:40 pm
-------------------------2017-02-08 05:22:45 pm
-------------------------2017-02-08 05:22:50 pm
-------------------------2017-02-08 05:22:55 pm
-------------------------2017-02-08 05:23:00 pm
-------------------------2017-02-08 05:23:05 pm
-------------------------2017-02-08 05:23:10 pm
-------------------------2017-02-08 05:23:15 pm
-------------------------2017-02-08 05:23:20 pm
-------------------------2017-02-08 05:23:25 pm
-------------------------2017-02-08 05:23:30 pm
-------------------------2017-02-08 05:23:35 pm
-------------------------2017-02-08 05:23:40 pm
-------------------------2017-02-08 05:23:45 pm
-------------------------2017-02-08 05:23:50 pm
-------------------------2017-02-08 05:23:55 pm
-------------------------2017-02-08 05:24:00 pm
-------------------------2017-02-08 05:24:05 pm
-------------------------2017-02-08 05:24:10 pm
-------------------------2017-02-08 05:24:15 pm
-------------------------2017-02-08 05:24:20 pm
-------------------------2017-02-08 05:24:25 pm
-------------------------2017-02-08 05:24:30 pm
-------------------------2017-02-08 05:24:35 pm
-------------------------2017-02-08 05:24:40 pm
-------------------------2017-02-08 05:24:45 pm
-------------------------2017-02-08 05:24:50 pm
-------------------------2017-02-08 05:24:55 pm
-------------------------2017-02-08 05:25:00 pm
-------------------------2017-02-08 05:25:05 pm
-------------------------2017-02-08 05:25:10 pm
-------------------------2017-02-08 05:25:15 pm
-------------------------2017-02-08 05:25:20 pm
-------------------------2017-02-08 05:25:25 pm
-------------------------2017-02-08 05:25:30 pm
-------------------------2017-02-08 05:25:35 pm
-------------------------2017-02-08 05:25:40 pm
-------------------------2017-02-08 05:25:45 pm
-------------------------2017-02-08 05:25:50 pm
-------------------------2017-02-08 05:25:55 pm
-------------------------2017-02-08 05:26:00 pm
-------------------------2017-02-08 05:26:05 pm
-------------------------2017-02-08 05:26:10 pm
-------------------------2017-02-08 05:26:15 pm
-------------------------2017-02-08 05:26:20 pm
-------------------------2017-02-08 05:26:25 pm
-------------------------2017-02-08 05:26:30 pm
-------------------------2017-02-08 05:26:35 pm
-------------------------2017-02-08 05:26:40 pm
-------------------------2017-02-08 05:26:45 pm
-------------------------2017-02-08 05:26:50 pm
-------------------------2017-02-08 05:26:55 pm
-------------------------2017-02-08 05:27:00 pm
-------------------------2017-02-08 05:27:05 pm
-------------------------2017-02-08 05:27:10 pm
-------------------------2017-02-08 05:27:15 pm
-------------------------2017-02-08 05:27:20 pm
-------------------------2017-02-08 05:27:25 pm
-------------------------2017-02-08 05:27:30 pm
-------------------------2017-02-08 05:27:35 pm
-------------------------2017-02-08 05:27:40 pm
-------------------------2017-02-08 05:27:45 pm
-------------------------2017-02-08 05:27:50 pm
-------------------------2017-02-08 05:27:55 pm
-------------------------2017-02-08 05:28:00 pm
-------------------------2017-02-08 05:28:05 pm
-------------------------2017-02-08 05:28:10 pm
-------------------------2017-02-08 05:28:15 pm
-------------------------2017-02-08 05:28:20 pm
-------------------------2017-02-08 05:28:25 pm
-------------------------2017-02-08 05:28:30 pm
-------------------------2017-02-08 05:28:35 pm
-------------------------2017-02-08 05:28:40 pm
-------------------------2017-02-08 05:28:45 pm
-------------------------2017-02-08 05:28:50 pm
-------------------------2017-02-08 05:28:55 pm
-------------------------2017-02-08 05:29:00 pm
-------------------------2017-02-08 05:29:05 pm
-------------------------2017-02-08 05:29:10 pm
-------------------------2017-02-08 05:29:15 pm
-------------------------2017-02-08 05:29:20 pm
-------------------------2017-02-08 05:29:25 pm
-------------------------2017-02-08 05:29:30 pm
-------------------------2017-02-08 05:29:35 pm
-------------------------2017-02-08 05:29:40 pm
-------------------------2017-02-08 05:29:45 pm
-------------------------2017-02-08 05:29:50 pm
-------------------------2017-02-08 05:29:55 pm
-------------------------2017-02-08 05:30:00 pm
-------------------------2017-02-08 05:30:05 pm
-------------------------2017-02-08 05:30:10 pm
-------------------------2017-02-08 05:30:15 pm
-------------------------2017-02-08 05:30:20 pm
-------------------------2017-02-08 05:30:25 pm
-------------------------2017-02-08 05:30:30 pm
-------------------------2017-02-08 05:30:35 pm
-------------------------2017-02-08 05:30:40 pm
-------------------------2017-02-08 05:30:45 pm
-------------------------2017-02-08 05:30:50 pm
-------------------------2017-02-08 05:30:55 pm
-------------------------2017-02-08 05:31:00 pm
-------------------------2017-02-08 05:31:05 pm
-------------------------2017-02-08 05:31:10 pm
-------------------------2017-02-08 05:31:15 pm
-------------------------2017-02-08 05:31:20 pm
-------------------------2017-02-08 05:31:25 pm
-------------------------2017-02-08 05:31:30 pm
-------------------------2017-02-08 05:31:35 pm
-------------------------2017-02-08 05:31:40 pm
-------------------------2017-02-08 05:31:45 pm
-------------------------2017-02-08 05:31:50 pm
-------------------------2017-02-08 05:31:55 pm
-------------------------2017-02-08 05:32:00 pm
-------------------------2017-02-08 05:32:05 pm
-------------------------2017-02-08 05:32:10 pm
-------------------------2017-02-08 05:32:15 pm
-------------------------2017-02-08 05:32:20 pm
-------------------------2017-02-08 05:32:25 pm
-------------------------2017-02-08 05:32:30 pm
-------------------------2017-02-08 05:32:35 pm
-------------------------2017-02-08 05:32:40 pm
-------------------------2017-02-08 05:32:45 pm
-------------------------2017-02-08 05:32:50 pm
-------------------------2017-02-08 05:32:55 pm
-------------------------2017-02-08 05:33:00 pm
-------------------------2017-02-08 05:33:05 pm
-------------------------2017-02-08 05:33:10 pm
-------------------------2017-02-08 05:33:15 pm
-------------------------2017-02-08 05:33:20 pm
-------------------------2017-02-08 05:33:25 pm
-------------------------2017-02-08 05:33:30 pm
-------------------------2017-02-08 05:33:35 pm
-------------------------2017-02-08 05:33:40 pm
-------------------------2017-02-08 05:33:45 pm
-------------------------2017-02-08 05:33:50 pm
-------------------------2017-02-08 05:33:55 pm
-------------------------2017-02-08 05:34:00 pm
-------------------------2017-02-08 05:34:05 pm
-------------------------2017-02-08 05:34:10 pm
-------------------------2017-02-08 05:34:15 pm
-------------------------2017-02-08 05:34:20 pm
-------------------------2017-02-08 05:34:25 pm
-------------------------2017-02-08 05:34:30 pm
-------------------------2017-02-08 05:34:35 pm
-------------------------2017-02-08 05:34:40 pm
-------------------------2017-02-08 05:34:45 pm
-------------------------2017-02-08 05:34:50 pm
-------------------------2017-02-08 05:34:55 pm
-------------------------2017-02-08 05:35:00 pm
-------------------------2017-02-08 05:35:05 pm
-------------------------2017-02-08 05:35:10 pm
-------------------------2017-02-08 05:35:15 pm
-------------------------2017-02-08 05:35:20 pm
-------------------------2017-02-08 05:35:25 pm
-------------------------2017-02-08 05:35:30 pm
-------------------------2017-02-08 05:35:35 pm
-------------------------2017-02-08 05:35:40 pm
-------------------------2017-02-08 05:35:45 pm
-------------------------2017-02-08 05:35:50 pm
-------------------------2017-02-08 05:35:55 pm
-------------------------2017-02-08 05:36:00 pm
-------------------------2017-02-08 05:36:05 pm
-------------------------2017-02-08 05:36:10 pm
-------------------------2017-02-08 05:36:15 pm
-------------------------2017-02-08 05:36:20 pm
-------------------------2017-02-08 05:36:25 pm
-------------------------2017-02-08 05:36:30 pm
-------------------------2017-02-08 05:36:35 pm
-------------------------2017-02-08 05:36:40 pm
-------------------------2017-02-08 05:36:45 pm
-------------------------2017-02-08 05:36:50 pm
-------------------------2017-02-08 05:36:55 pm
-------------------------2017-02-08 05:37:00 pm
-------------------------2017-02-08 05:37:05 pm
-------------------------2017-02-08 05:37:10 pm
-------------------------2017-02-08 05:37:15 pm
-------------------------2017-02-08 05:37:20 pm
-------------------------2017-02-08 05:37:25 pm
-------------------------2017-02-08 05:37:30 pm
-------------------------2017-02-08 05:37:35 pm
-------------------------2017-02-08 05:37:40 pm
-------------------------2017-02-08 05:37:45 pm
-------------------------2017-02-08 05:37:50 pm
-------------------------2017-02-08 05:37:55 pm
-------------------------2017-02-08 05:38:00 pm
-------------------------2017-02-08 05:38:05 pm
-------------------------2017-02-08 05:38:10 pm
-------------------------2017-02-08 05:38:15 pm
-------------------------2017-02-08 05:38:20 pm
-------------------------2017-02-08 05:38:25 pm
-------------------------2017-02-08 05:38:30 pm
-------------------------2017-02-08 05:38:35 pm
-------------------------2017-02-08 05:38:40 pm
-------------------------2017-02-08 05:38:45 pm
-------------------------2017-02-08 05:38:50 pm
-------------------------2017-02-08 05:38:55 pm
-------------------------2017-02-08 05:39:00 pm
-------------------------2017-02-08 05:39:05 pm
-------------------------2017-02-08 05:39:10 pm
-------------------------2017-02-08 05:39:15 pm
-------------------------2017-02-08 05:39:20 pm
-------------------------2017-02-08 05:39:25 pm
-------------------------2017-02-08 05:39:30 pm
-------------------------2017-02-08 05:39:35 pm
-------------------------2017-02-08 05:39:40 pm
-------------------------2017-02-08 05:39:45 pm
-------------------------2017-02-08 05:39:50 pm
-------------------------2017-02-08 05:39:55 pm
-------------------------2017-02-08 05:40:00 pm
-------------------------2017-02-08 05:40:05 pm
-------------------------2017-02-08 05:40:10 pm
-------------------------2017-02-08 05:40:15 pm
-------------------------2017-02-08 05:40:20 pm
-------------------------2017-02-08 05:40:25 pm
-------------------------2017-02-08 05:40:30 pm
-------------------------2017-02-08 05:40:35 pm
-------------------------2017-02-08 05:40:40 pm
-------------------------2017-02-08 05:40:45 pm
-------------------------2017-02-08 05:40:50 pm
-------------------------2017-02-08 05:40:55 pm
-------------------------2017-02-08 05:41:00 pm
-------------------------2017-02-08 05:41:05 pm
-------------------------2017-02-08 05:41:10 pm
-------------------------2017-02-08 05:41:15 pm
-------------------------2017-02-08 05:41:20 pm
-------------------------2017-02-08 05:41:25 pm
-------------------------2017-02-08 05:41:30 pm
-------------------------2017-02-08 05:41:35 pm
-------------------------2017-02-08 05:41:40 pm
-------------------------2017-02-08 05:41:45 pm
-------------------------2017-02-08 05:41:50 pm
-------------------------2017-02-08 05:41:55 pm
-------------------------2017-02-08 05:42:00 pm
-------------------------2017-02-08 05:42:05 pm
-------------------------2017-02-08 05:42:10 pm
-------------------------2017-02-08 05:42:15 pm
-------------------------2017-02-08 05:42:20 pm
-------------------------2017-02-08 05:42:25 pm
-------------------------2017-02-08 05:42:30 pm
-------------------------2017-02-08 05:42:35 pm
-------------------------2017-02-08 05:42:40 pm
-------------------------2017-02-08 05:42:45 pm
-------------------------2017-02-08 05:42:50 pm
-------------------------2017-02-08 05:42:55 pm
-------------------------2017-02-08 05:43:00 pm
-------------------------2017-02-08 05:43:05 pm
-------------------------2017-02-08 05:43:10 pm
-------------------------2017-02-08 05:43:15 pm
-------------------------2017-02-08 05:43:20 pm
-------------------------2017-02-08 05:43:25 pm
-------------------------2017-02-08 05:43:30 pm
-------------------------2017-02-08 05:43:35 pm
-------------------------2017-02-08 05:43:40 pm
-------------------------2017-02-08 05:43:45 pm
-------------------------2017-02-08 05:43:50 pm
-------------------------2017-02-08 05:43:55 pm
-------------------------2017-02-08 05:44:00 pm
-------------------------2017-02-08 05:44:05 pm
-------------------------2017-02-08 05:44:10 pm
-------------------------2017-02-08 05:44:15 pm
-------------------------2017-02-08 05:44:20 pm
-------------------------2017-02-08 05:44:25 pm
-------------------------2017-02-08 05:44:30 pm
-------------------------2017-02-08 05:44:35 pm
-------------------------2017-02-08 05:44:40 pm
-------------------------2017-02-08 05:44:45 pm
-------------------------2017-02-08 05:44:50 pm
-------------------------2017-02-08 05:44:55 pm
-------------------------2017-02-08 05:45:00 pm
-------------------------2017-02-08 05:45:05 pm
-------------------------2017-02-08 05:45:10 pm
-------------------------2017-02-08 05:45:15 pm
-------------------------2017-02-08 05:45:20 pm
-------------------------2017-02-08 05:45:25 pm
-------------------------2017-02-08 05:45:30 pm
-------------------------2017-02-08 05:45:35 pm
-------------------------2017-02-08 05:45:40 pm
-------------------------2017-02-08 05:45:45 pm
-------------------------2017-02-08 05:45:50 pm
-------------------------2017-02-08 05:45:55 pm
-------------------------2017-02-08 05:46:00 pm
-------------------------2017-02-08 05:46:05 pm
-------------------------2017-02-08 05:46:10 pm
-------------------------2017-02-08 05:46:15 pm
-------------------------2017-02-08 05:46:20 pm
-------------------------2017-02-08 05:46:25 pm
-------------------------2017-02-08 05:46:30 pm
-------------------------2017-02-08 05:46:35 pm
-------------------------2017-02-08 05:46:40 pm
-------------------------2017-02-08 05:46:45 pm
-------------------------2017-02-08 05:46:50 pm
-------------------------2017-02-08 05:46:55 pm
-------------------------2017-02-08 05:47:00 pm
-------------------------2017-02-08 05:47:05 pm
-------------------------2017-02-08 05:47:10 pm
-------------------------2017-02-08 05:47:15 pm
-------------------------2017-02-08 05:47:20 pm
-------------------------2017-02-08 05:47:25 pm
-------------------------2017-02-08 05:47:30 pm
-------------------------2017-02-08 05:47:35 pm
-------------------------2017-02-08 05:47:40 pm
-------------------------2017-02-08 05:47:45 pm
-------------------------2017-02-08 05:47:50 pm
-------------------------2017-02-08 05:47:55 pm
-------------------------2017-02-08 05:48:00 pm
-------------------------2017-02-08 05:48:05 pm
-------------------------2017-02-08 05:48:10 pm
-------------------------2017-02-08 05:48:15 pm
-------------------------2017-02-08 05:48:20 pm
-------------------------2017-02-08 05:48:25 pm
-------------------------2017-02-08 05:48:30 pm
-------------------------2017-02-08 05:48:35 pm
-------------------------2017-02-08 05:48:40 pm
-------------------------2017-02-08 05:48:45 pm
-------------------------2017-02-08 05:48:50 pm
-------------------------2017-02-08 05:48:55 pm
-------------------------2017-02-08 05:49:00 pm
-------------------------2017-02-08 05:49:05 pm
-------------------------2017-02-08 05:49:10 pm
-------------------------2017-02-08 05:49:15 pm
-------------------------2017-02-08 05:49:20 pm
-------------------------2017-02-08 05:49:25 pm
-------------------------2017-02-08 05:49:30 pm
-------------------------2017-02-08 05:49:35 pm
-------------------------2017-02-08 05:49:40 pm
-------------------------2017-02-08 05:49:45 pm
-------------------------2017-02-08 05:49:50 pm
-------------------------2017-02-08 05:49:55 pm
-------------------------2017-02-08 05:50:00 pm
-------------------------2017-02-08 05:50:05 pm
-------------------------2017-02-08 05:50:10 pm
-------------------------2017-02-08 05:50:15 pm
-------------------------2017-02-08 05:50:20 pm
-------------------------2017-02-08 05:50:25 pm
-------------------------2017-02-08 05:50:30 pm
-------------------------2017-02-08 05:50:35 pm
-------------------------2017-02-08 05:50:40 pm
-------------------------2017-02-08 05:50:45 pm
-------------------------2017-02-08 05:50:50 pm
-------------------------2017-02-08 05:50:55 pm
-------------------------2017-02-08 05:51:00 pm
-------------------------2017-02-08 05:51:05 pm
-------------------------2017-02-08 05:51:10 pm
-------------------------2017-02-08 05:51:15 pm
-------------------------2017-02-08 05:51:20 pm
-------------------------2017-02-08 05:51:25 pm
-------------------------2017-02-08 05:51:30 pm
-------------------------2017-02-08 05:51:35 pm
-------------------------2017-02-08 05:51:40 pm
-------------------------2017-02-08 05:51:45 pm
-------------------------2017-02-08 05:51:50 pm
-------------------------2017-02-08 05:51:55 pm
-------------------------2017-02-08 05:52:00 pm
-------------------------2017-02-08 05:52:05 pm
-------------------------2017-02-08 05:52:10 pm
-------------------------2017-02-08 05:52:15 pm
-------------------------2017-02-08 05:52:20 pm
-------------------------2017-02-08 05:52:25 pm
-------------------------2017-02-08 05:52:30 pm
-------------------------2017-02-08 05:52:35 pm
-------------------------2017-02-08 05:52:40 pm
-------------------------2017-02-08 05:52:45 pm
-------------------------2017-02-08 05:52:50 pm
-------------------------2017-02-08 05:52:55 pm
-------------------------2017-02-08 05:53:00 pm
-------------------------2017-02-08 05:53:05 pm
-------------------------2017-02-08 05:53:10 pm
-------------------------2017-02-08 05:53:15 pm
-------------------------2017-02-08 05:53:20 pm
-------------------------2017-02-08 05:53:25 pm
-------------------------2017-02-08 05:53:30 pm
-------------------------2017-02-08 05:53:35 pm
-------------------------2017-02-08 05:53:40 pm
-------------------------2017-02-08 05:53:45 pm
-------------------------2017-02-08 05:53:50 pm
-------------------------2017-02-08 05:53:55 pm
-------------------------2017-02-08 05:54:00 pm
-------------------------2017-02-08 05:54:05 pm
-------------------------2017-02-08 05:54:10 pm
-------------------------2017-02-08 05:54:15 pm
-------------------------2017-02-08 05:54:20 pm
-------------------------2017-02-08 05:54:25 pm
-------------------------2017-02-08 05:54:30 pm
-------------------------2017-02-08 05:54:35 pm
-------------------------2017-02-08 05:54:40 pm
-------------------------2017-02-08 05:54:45 pm
-------------------------2017-02-08 05:54:50 pm
-------------------------2017-02-08 05:54:55 pm
-------------------------2017-02-08 05:55:00 pm
-------------------------2017-02-08 05:55:05 pm
-------------------------2017-02-08 05:55:10 pm
-------------------------2017-02-08 05:55:15 pm
-------------------------2017-02-08 05:55:20 pm
-------------------------2017-02-08 05:55:25 pm
-------------------------2017-02-08 05:55:30 pm
-------------------------2017-02-08 05:55:35 pm
-------------------------2017-02-08 05:55:40 pm
-------------------------2017-02-08 05:55:45 pm
-------------------------2017-02-08 05:55:50 pm
-------------------------2017-02-08 05:55:55 pm
-------------------------2017-02-08 05:56:00 pm
-------------------------2017-02-08 05:56:05 pm
-------------------------2017-02-08 05:56:10 pm
-------------------------2017-02-08 05:56:15 pm
-------------------------2017-02-08 05:56:20 pm
-------------------------2017-02-08 05:56:25 pm
-------------------------2017-02-08 05:56:30 pm
-------------------------2017-02-08 05:56:35 pm
-------------------------2017-02-08 05:56:40 pm
-------------------------2017-02-08 05:56:45 pm
-------------------------2017-02-08 05:56:50 pm
-------------------------2017-02-08 05:56:55 pm
-------------------------2017-02-08 05:57:00 pm
-------------------------2017-02-08 05:57:05 pm
-------------------------2017-02-08 05:57:10 pm
-------------------------2017-02-08 05:57:15 pm
-------------------------2017-02-08 05:57:20 pm
-------------------------2017-02-08 05:57:25 pm
-------------------------2017-02-08 05:57:30 pm
-------------------------2017-02-08 05:57:35 pm
-------------------------2017-02-08 05:57:40 pm
-------------------------2017-02-08 05:57:45 pm
-------------------------2017-02-08 05:57:50 pm
-------------------------2017-02-08 05:57:55 pm
-------------------------2017-02-08 05:58:00 pm
-------------------------2017-02-08 05:58:05 pm
-------------------------2017-02-08 05:58:10 pm
-------------------------2017-02-08 05:58:15 pm
-------------------------2017-02-08 05:58:20 pm
-------------------------2017-02-08 05:58:25 pm
-------------------------2017-02-08 05:58:30 pm
-------------------------2017-02-08 05:58:35 pm
-------------------------2017-02-08 05:58:40 pm
-------------------------2017-02-08 05:58:45 pm
-------------------------2017-02-08 05:58:50 pm
-------------------------2017-02-08 05:58:55 pm
-------------------------2017-02-08 05:59:00 pm
-------------------------2017-02-08 05:59:05 pm
-------------------------2017-02-08 05:59:10 pm
-------------------------2017-02-08 05:59:15 pm
-------------------------2017-02-08 05:59:20 pm
-------------------------2017-02-08 05:59:25 pm
-------------------------2017-02-08 05:59:30 pm
-------------------------2017-02-08 05:59:35 pm
-------------------------2017-02-08 05:59:40 pm
-------------------------2017-02-08 05:59:45 pm
-------------------------2017-02-08 05:59:50 pm
-------------------------2017-02-08 05:59:55 pm
-------------------------2017-02-08 06:00:00 pm
-------------------------2017-02-08 06:00:05 pm
-------------------------2017-02-08 06:00:10 pm
-------------------------2017-02-08 06:00:15 pm
-------------------------2017-02-08 06:00:20 pm
-------------------------2017-02-08 06:00:25 pm
-------------------------2017-02-08 06:00:30 pm
-------------------------2017-02-08 06:00:35 pm
-------------------------2017-02-08 06:00:40 pm
-------------------------2017-02-08 06:00:45 pm
-------------------------2017-02-08 06:00:50 pm
-------------------------2017-02-08 06:00:55 pm
-------------------------2017-02-08 06:01:00 pm
-------------------------2017-02-08 06:01:05 pm
-------------------------2017-02-08 06:01:10 pm
-------------------------2017-02-08 06:01:15 pm
-------------------------2017-02-08 06:01:20 pm
-------------------------2017-02-08 06:01:25 pm
-------------------------2017-02-08 06:01:30 pm
-------------------------2017-02-08 06:01:35 pm
-------------------------2017-02-08 06:01:40 pm
-------------------------2017-02-08 06:01:45 pm
-------------------------2017-02-08 06:01:50 pm
-------------------------2017-02-08 06:01:55 pm
-------------------------2017-02-08 06:02:00 pm
-------------------------2017-02-08 06:02:05 pm
-------------------------2017-02-08 06:02:10 pm
-------------------------2017-02-08 06:02:15 pm
-------------------------2017-02-08 06:02:20 pm
-------------------------2017-02-08 06:02:25 pm
-------------------------2017-02-08 06:02:30 pm
-------------------------2017-02-08 06:02:35 pm
-------------------------2017-02-08 06:02:40 pm
-------------------------2017-02-08 06:02:45 pm
-------------------------2017-02-08 06:02:50 pm
-------------------------2017-02-08 06:02:55 pm
-------------------------2017-02-08 06:03:00 pm
-------------------------2017-02-08 06:03:05 pm
-------------------------2017-02-08 06:03:10 pm
-------------------------2017-02-08 06:03:15 pm
-------------------------2017-02-08 06:03:20 pm
-------------------------2017-02-08 06:03:25 pm
-------------------------2017-02-08 06:03:30 pm
-------------------------2017-02-08 06:03:35 pm
-------------------------2017-02-08 06:03:40 pm
-------------------------2017-02-08 06:03:45 pm
-------------------------2017-02-08 06:03:50 pm
-------------------------2017-02-08 06:03:55 pm
-------------------------2017-02-08 06:04:00 pm
-------------------------2017-02-08 06:04:05 pm
-------------------------2017-02-08 06:04:10 pm
-------------------------2017-02-08 06:04:15 pm
-------------------------2017-02-08 06:04:20 pm
-------------------------2017-02-08 06:04:25 pm
-------------------------2017-02-08 06:04:30 pm
-------------------------2017-02-08 06:04:35 pm
-------------------------2017-02-08 06:04:40 pm
-------------------------2017-02-08 06:04:45 pm
-------------------------2017-02-08 06:04:50 pm
-------------------------2017-02-08 06:04:55 pm
-------------------------2017-02-08 06:05:00 pm
-------------------------2017-02-08 06:05:05 pm
-------------------------2017-02-08 06:05:10 pm
-------------------------2017-02-08 06:05:15 pm
-------------------------2017-02-08 06:05:20 pm
-------------------------2017-02-08 06:05:25 pm
-------------------------2017-02-08 06:05:30 pm
-------------------------2017-02-08 06:05:35 pm
-------------------------2017-02-08 06:05:40 pm
-------------------------2017-02-08 06:05:45 pm
-------------------------2017-02-08 06:05:50 pm
-------------------------2017-02-08 06:05:55 pm
-------------------------2017-02-08 06:06:00 pm
-------------------------2017-02-08 06:06:05 pm
-------------------------2017-02-08 06:06:10 pm
-------------------------2017-02-08 06:06:15 pm
-------------------------2017-02-08 06:06:20 pm
-------------------------2017-02-08 06:06:25 pm
-------------------------2017-02-08 06:06:30 pm
-------------------------2017-02-08 06:06:35 pm
-------------------------2017-02-08 06:06:40 pm
-------------------------2017-02-08 06:06:45 pm
-------------------------2017-02-08 06:06:50 pm
-------------------------2017-02-08 06:06:55 pm
-------------------------2017-02-08 06:07:00 pm
-------------------------2017-02-08 06:07:05 pm
-------------------------2017-02-08 06:07:10 pm
-------------------------2017-02-08 06:07:15 pm
-------------------------2017-02-08 06:07:20 pm
-------------------------2017-02-08 06:07:25 pm
-------------------------2017-02-08 06:07:30 pm
-------------------------2017-02-08 06:07:35 pm
-------------------------2017-02-08 06:07:40 pm
-------------------------2017-02-08 06:07:45 pm
-------------------------2017-02-08 06:07:50 pm
-------------------------2017-02-08 06:07:55 pm
-------------------------2017-02-08 06:08:00 pm
-------------------------2017-02-08 06:08:05 pm
-------------------------2017-02-08 06:08:10 pm
-------------------------2017-02-08 06:08:15 pm
-------------------------2017-02-08 06:08:20 pm
-------------------------2017-02-08 06:08:25 pm
-------------------------2017-02-08 06:08:30 pm
-------------------------2017-02-08 06:08:35 pm
-------------------------2017-02-08 06:08:40 pm
-------------------------2017-02-08 06:08:45 pm
-------------------------2017-02-08 06:08:50 pm
-------------------------2017-02-08 06:08:55 pm
-------------------------2017-02-08 06:09:00 pm
-------------------------2017-02-08 06:09:05 pm
-------------------------2017-02-08 06:09:10 pm
-------------------------2017-02-08 06:09:15 pm
-------------------------2017-02-08 06:09:20 pm
-------------------------2017-02-08 06:09:25 pm
-------------------------2017-02-08 06:09:30 pm
-------------------------2017-02-08 06:09:35 pm
-------------------------2017-02-08 06:09:40 pm
-------------------------2017-02-08 06:09:45 pm
-------------------------2017-02-08 06:09:50 pm
-------------------------2017-02-08 06:09:55 pm
-------------------------2017-02-08 06:10:00 pm
-------------------------2017-02-08 06:10:05 pm
-------------------------2017-02-08 06:10:10 pm
-------------------------2017-02-08 06:10:15 pm
-------------------------2017-02-08 06:10:20 pm
-------------------------2017-02-08 06:10:25 pm
-------------------------2017-02-08 06:10:30 pm
-------------------------2017-02-08 06:10:35 pm
-------------------------2017-02-08 06:10:40 pm
-------------------------2017-02-08 06:10:45 pm
-------------------------2017-02-08 06:10:50 pm
-------------------------2017-02-08 06:10:55 pm
-------------------------2017-02-08 06:11:00 pm
-------------------------2017-02-08 06:11:05 pm
-------------------------2017-02-08 06:11:10 pm
-------------------------2017-02-08 06:11:15 pm
-------------------------2017-02-08 06:11:20 pm
-------------------------2017-02-08 06:11:25 pm
-------------------------2017-02-08 06:11:30 pm
-------------------------2017-02-08 06:11:35 pm
-------------------------2017-02-08 06:11:40 pm
-------------------------2017-02-08 06:11:45 pm
-------------------------2017-02-08 06:11:50 pm
-------------------------2017-02-08 06:11:55 pm
-------------------------2017-02-08 06:12:00 pm
-------------------------2017-02-08 06:12:05 pm
-------------------------2017-02-08 06:12:10 pm
-------------------------2017-02-08 06:12:15 pm
-------------------------2017-02-08 06:12:20 pm
-------------------------2017-02-08 06:12:25 pm
-------------------------2017-02-08 06:12:30 pm
-------------------------2017-02-08 06:12:35 pm
-------------------------2017-02-08 06:12:40 pm
-------------------------2017-02-08 06:12:45 pm
-------------------------2017-02-08 06:12:50 pm
-------------------------2017-02-08 06:12:55 pm
-------------------------2017-02-08 06:13:00 pm
-------------------------2017-02-08 06:13:05 pm
-------------------------2017-02-08 06:13:10 pm
-------------------------2017-02-08 06:13:15 pm
-------------------------2017-02-08 06:13:20 pm
-------------------------2017-02-08 06:13:25 pm
-------------------------2017-02-08 06:13:30 pm
-------------------------2017-02-08 06:13:35 pm
-------------------------2017-02-08 06:13:40 pm
-------------------------2017-02-08 06:13:45 pm
-------------------------2017-02-08 06:13:50 pm
-------------------------2017-02-08 06:13:55 pm
-------------------------2017-02-08 06:14:00 pm
-------------------------2017-02-08 06:14:05 pm
-------------------------2017-02-08 06:14:10 pm
-------------------------2017-02-08 06:14:15 pm
-------------------------2017-02-08 06:14:20 pm
-------------------------2017-02-08 06:14:25 pm
-------------------------2017-02-08 06:14:30 pm
-------------------------2017-02-08 06:14:35 pm
-------------------------2017-02-08 06:14:40 pm
-------------------------2017-02-08 06:14:45 pm
-------------------------2017-02-08 06:14:50 pm
-------------------------2017-02-08 06:14:55 pm
-------------------------2017-02-08 06:15:00 pm
-------------------------2017-02-08 06:15:05 pm
-------------------------2017-02-08 06:15:10 pm
-------------------------2017-02-08 06:15:15 pm
-------------------------2017-02-08 06:15:20 pm
-------------------------2017-02-08 06:15:25 pm
-------------------------2017-02-08 06:15:30 pm
-------------------------2017-02-08 06:15:35 pm
-------------------------2017-02-08 06:15:40 pm
-------------------------2017-02-08 06:15:45 pm
-------------------------2017-02-08 06:15:50 pm
-------------------------2017-02-08 06:15:55 pm
-------------------------2017-02-08 06:16:00 pm
-------------------------2017-02-08 06:16:05 pm
-------------------------2017-02-08 06:16:10 pm
-------------------------2017-02-08 06:16:15 pm
-------------------------2017-02-08 06:16:20 pm
-------------------------2017-02-08 06:16:25 pm
-------------------------2017-02-08 06:16:30 pm
-------------------------2017-02-08 06:16:35 pm
-------------------------2017-02-08 06:16:40 pm
-------------------------2017-02-08 06:16:45 pm
-------------------------2017-02-08 06:16:50 pm
-------------------------2017-02-08 06:16:55 pm
-------------------------2017-02-08 06:17:00 pm
-------------------------2017-02-08 06:17:05 pm
-------------------------2017-02-08 06:17:10 pm
-------------------------2017-02-08 06:17:15 pm
-------------------------2017-02-08 06:17:20 pm
-------------------------2017-02-08 06:17:25 pm
-------------------------2017-02-08 06:17:30 pm
-------------------------2017-02-08 06:17:35 pm
-------------------------2017-02-08 06:17:40 pm
-------------------------2017-02-08 06:17:45 pm
-------------------------2017-02-08 06:17:50 pm
-------------------------2017-02-08 06:17:55 pm
-------------------------2017-02-08 06:18:00 pm
-------------------------2017-02-08 06:18:05 pm
-------------------------2017-02-08 06:18:10 pm
-------------------------2017-02-08 06:18:15 pm
-------------------------2017-02-08 06:18:20 pm
-------------------------2017-02-08 06:18:25 pm
-------------------------2017-02-08 06:18:30 pm
-------------------------2017-02-08 06:18:35 pm
-------------------------2017-02-08 06:18:40 pm
-------------------------2017-02-08 06:18:45 pm
-------------------------2017-02-08 06:18:50 pm
-------------------------2017-02-08 06:18:55 pm
-------------------------2017-02-08 06:19:00 pm
-------------------------2017-02-08 06:19:05 pm
-------------------------2017-02-08 06:19:10 pm
-------------------------2017-02-08 06:19:15 pm
-------------------------2017-02-08 06:19:20 pm
-------------------------2017-02-08 06:19:25 pm
-------------------------2017-02-08 06:19:30 pm
-------------------------2017-02-08 06:19:35 pm
-------------------------2017-02-08 06:19:40 pm
-------------------------2017-02-08 06:19:45 pm
-------------------------2017-02-08 06:19:50 pm
-------------------------2017-02-08 06:19:55 pm
-------------------------2017-02-08 06:20:00 pm
-------------------------2017-02-08 06:20:05 pm
-------------------------2017-02-08 06:20:10 pm
-------------------------2017-02-08 06:20:15 pm
-------------------------2017-02-08 06:20:20 pm
-------------------------2017-02-08 06:20:25 pm
-------------------------2017-02-08 06:20:30 pm
-------------------------2017-02-08 06:20:35 pm
-------------------------2017-02-08 06:20:40 pm
-------------------------2017-02-08 06:20:45 pm
-------------------------2017-02-08 06:20:50 pm
-------------------------2017-02-08 06:20:55 pm
-------------------------2017-02-08 06:21:00 pm
-------------------------2017-02-08 06:21:05 pm
-------------------------2017-02-08 06:21:10 pm
-------------------------2017-02-08 06:21:15 pm
-------------------------2017-02-08 06:21:20 pm
-------------------------2017-02-08 06:21:25 pm
-------------------------2017-02-08 06:21:30 pm
-------------------------2017-02-08 06:21:35 pm
-------------------------2017-02-08 06:21:40 pm
-------------------------2017-02-08 06:21:45 pm
-------------------------2017-02-08 06:21:50 pm
-------------------------2017-02-08 06:21:55 pm
-------------------------2017-02-08 06:22:00 pm
-------------------------2017-02-08 06:22:05 pm
-------------------------2017-02-08 06:22:10 pm
-------------------------2017-02-08 06:22:15 pm
-------------------------2017-02-08 06:22:20 pm
-------------------------2017-02-08 06:22:25 pm
-------------------------2017-02-08 06:22:30 pm
-------------------------2017-02-08 06:22:35 pm
-------------------------2017-02-08 06:22:40 pm
-------------------------2017-02-08 06:22:45 pm
-------------------------2017-02-08 06:22:50 pm
-------------------------2017-02-08 06:22:55 pm
-------------------------2017-02-08 06:23:00 pm
-------------------------2017-02-08 06:23:05 pm
-------------------------2017-02-08 06:23:10 pm
-------------------------2017-02-08 06:23:15 pm
-------------------------2017-02-08 06:23:20 pm
-------------------------2017-02-08 06:23:25 pm
-------------------------2017-02-08 06:23:30 pm
-------------------------2017-02-08 06:23:35 pm
-------------------------2017-02-08 06:23:40 pm
-------------------------2017-02-08 06:23:45 pm
-------------------------2017-02-08 06:23:50 pm
-------------------------2017-02-08 06:23:55 pm
-------------------------2017-02-08 06:24:00 pm
-------------------------2017-02-08 06:24:05 pm
-------------------------2017-02-08 06:24:10 pm
-------------------------2017-02-08 06:24:15 pm
-------------------------2017-02-08 06:24:20 pm
-------------------------2017-02-08 06:24:25 pm
-------------------------2017-02-08 06:24:30 pm
-------------------------2017-02-08 06:24:35 pm
-------------------------2017-02-08 06:24:40 pm
-------------------------2017-02-08 06:24:45 pm
-------------------------2017-02-08 06:24:50 pm
-------------------------2017-02-08 06:24:55 pm
-------------------------2017-02-08 06:25:00 pm
-------------------------2017-02-08 06:25:05 pm
-------------------------2017-02-08 06:25:10 pm
-------------------------2017-02-08 06:25:15 pm
-------------------------2017-02-08 06:25:20 pm
-------------------------2017-02-08 06:25:25 pm
-------------------------2017-02-08 06:25:30 pm
-------------------------2017-02-08 06:25:35 pm
-------------------------2017-02-08 06:25:40 pm
-------------------------2017-02-08 06:25:45 pm
-------------------------2017-02-08 06:25:50 pm
-------------------------2017-02-08 06:25:55 pm
-------------------------2017-02-08 06:26:00 pm
-------------------------2017-02-08 06:26:05 pm
-------------------------2017-02-08 06:26:10 pm
-------------------------2017-02-08 06:26:15 pm
-------------------------2017-02-08 06:26:20 pm
-------------------------2017-02-08 06:26:25 pm
-------------------------2017-02-08 06:26:30 pm
-------------------------2017-02-08 06:26:35 pm
-------------------------2017-02-08 06:26:40 pm
-------------------------2017-02-08 06:26:45 pm
-------------------------2017-02-08 06:26:50 pm
-------------------------2017-02-08 06:26:55 pm
-------------------------2017-02-08 06:27:00 pm
-------------------------2017-02-08 06:27:05 pm
-------------------------2017-02-08 06:27:10 pm
-------------------------2017-02-08 06:27:15 pm
-------------------------2017-02-08 06:27:20 pm
-------------------------2017-02-08 06:27:25 pm
-------------------------2017-02-08 06:27:30 pm
-------------------------2017-02-08 06:27:35 pm
-------------------------2017-02-08 06:27:40 pm
-------------------------2017-02-08 06:27:45 pm
-------------------------2017-02-08 06:27:50 pm
-------------------------2017-04-13 05:20:17 pm
